<?xml version="1.0" encoding="UTF-8"?>
<svg width="530px" height="600px" viewBox="0 0 530 600" version="1.1" xmlns="http://www.w3.org/2000/svg" xmlns:xlink="http://www.w3.org/1999/xlink">
    <!-- Generator: Sketch 53.2 (72643) - https://sketchapp.com -->
    <title>shape-3 / left</title>
    <desc>Created with Sketch.</desc>
    <g id="Homepage" stroke="none" stroke-width="1" fill="none" fill-rule="evenodd">
        <g id="masks" transform="translate(-1861.000000, -117.000000)">
            <g id="shape-3-/-left" transform="translate(2126.000000, 417.000000) scale(-1, 1) translate(-2126.000000, -417.000000) translate(1861.000000, 117.000000)">
                <path d="M136.843586,6.32383035e-13 L51.2465982,49.7444645 C19.5211675,68.1816152 -1.87045434e-14,102.104546 0,138.798299 L0,0 L136.843586,0 Z M530,447.645815 L530,600 L0,600 L0,351.733959 C1.94314321e-13,389.328753 20.4830022,423.937239 53.4396586,442.026664 L252.488407,551.281603 C284.142193,568.655902 322.582674,568.185849 353.80215,550.042733 L530,447.645815 Z" id="Combined-Shape" fill="#FFFFFF"></path>
                <path d="M530,447.645815 L353.80215,550.042733 C322.582674,568.185849 284.142193,568.655902 252.488407,551.281603 L53.4396586,442.026664 C20.4830022,423.937239 1.94314321e-13,389.328753 1.56319402e-13,351.733959 L0,138.798299 C-1.87045434e-14,102.104546 19.5211675,68.1816152 51.2465982,49.7444645 L136.843586,6.32383035e-13 L530,6.25277607e-13 L530,447.645815 Z" id="shape-3-/-right-copy" fill-opacity="0" fill="#D8D8D8"></path>
            </g>
        </g>
    </g>
</svg>