<?xml version="1.0" encoding="UTF-8"?>
<svg width="530px" height="600px" viewBox="0 0 530 600" version="1.1" xmlns="http://www.w3.org/2000/svg" xmlns:xlink="http://www.w3.org/1999/xlink">
    <!-- Generator: Sketch 53.2 (72643) - https://sketchapp.com -->
    <title>shape-2 / right</title>
    <desc>Created with Sketch.</desc>
    <g id="Homepage" stroke="none" stroke-width="1" fill="none" fill-rule="evenodd">
        <g id="masks" transform="translate(-904.000000, -1090.000000)">
            <g id="shape-2-/-right" transform="translate(1169.000000, 1390.000000) scale(-1, 1) translate(-1169.000000, -1390.000000) translate(904.000000, 1090.000000)">
                <path d="M-2.27373675e-13,442.024318 L293.537663,548.749597 C322.073698,559.127516 353.620978,544.41678 364.013646,515.886114 L526.660885,69.5418503 C526.664129,69.5329458 526.66737,69.5240405 526.670609,69.5151343 C536.68032,41.9915523 523.349934,11.6688329 496.795311,0.225884069 L-2.27373675e-13,0.225884069 L0,0 L530,0 L530,600 L0,600 L0,442.024318 Z" id="Combined-Shape" fill="#FFFFFF"></path>
                <path d="M496.795311,0.225884069 C523.349934,11.6688329 536.68032,41.9915523 526.670609,69.5151343 C526.66737,69.5240405 526.664129,69.5329458 526.660885,69.5418503 L364.013646,515.886114 C353.620978,544.41678 322.073698,559.127516 293.537663,548.749597 L-2.27373675e-13,442.024318 L-2.27373675e-13,0.225884069 L496.795311,0.225884069 Z" id="shape-2-/-right-copy" fill-opacity="0" fill="#D8D8D8"></path>
            </g>
        </g>
    </g>
</svg>