<?xml version="1.0" encoding="UTF-8"?>
<svg width="530px" height="600px" viewBox="0 0 530 600" version="1.1" xmlns="http://www.w3.org/2000/svg" xmlns:xlink="http://www.w3.org/1999/xlink">
    <!-- Generator: Sketch 53.2 (72643) - https://sketchapp.com -->
    <title>shape-4 / left</title>
    <desc>Created with Sketch.</desc>
    <g id="Homepage" stroke="none" stroke-width="1" fill="none" fill-rule="evenodd" fill-opacity="0">
        <g id="masks" transform="translate(-1861.000000, -1090.000000)" fill="#D8D8D8">
            <g id="shape-4-/-left" transform="translate(1861.000000, 1090.000000)">
                <polygon transform="translate(265.000000, 300.000000) scale(-1, 1) translate(-265.000000, -300.000000) " points="0 1.0658141e-12 530 1.0658141e-12 530 600 0 600"></polygon>
            </g>
        </g>
    </g>
</svg>